info face="Verdana Bold" size=30 bold=0 italic=0 charset="" unicode=0 stretchH=100 smooth=1 aa=1 padding=1,1,1,1 spacing=-2,-2
common lineHeight=38 base=31 scaleW=512 scaleH=512 pages=2 packed=0
page id=0 file="verdana_font1.png"
page id=1 file="verdana_font2.png"
chars count=586
char id=0       x=345  y=245  width=26   height=25   xoffset=2    yoffset=7    xadvance=30   page=0    chnl=0 
char id=13      x=0    y=0    width=0    height=0    xoffset=-1   yoffset=0    xadvance=0    page=0    chnl=0 
char id=33      x=114  y=297  width=10   height=24   xoffset=1    yoffset=8    xadvance=12   page=0    chnl=0 
char id=35      x=124  y=297  width=24   height=24   xoffset=1    yoffset=8    xadvance=26   page=0    chnl=0 
char id=36      x=387  y=98   width=21   height=30   xoffset=0    yoffset=7    xadvance=21   page=0    chnl=0 
char id=37      x=148  y=297  width=37   height=24   xoffset=1    yoffset=8    xadvance=38   page=0    chnl=0 
char id=38      x=185  y=297  width=28   height=24   xoffset=0    yoffset=8    xadvance=26   page=0    chnl=0 
char id=40      x=189  y=66   width=14   height=31   xoffset=1    yoffset=7    xadvance=16   page=0    chnl=0 
char id=41      x=203  y=66   width=14   height=31   xoffset=1    yoffset=7    xadvance=16   page=0    chnl=0 
char id=47      x=408  y=98   width=19   height=30   xoffset=0    yoffset=7    xadvance=21   page=0    chnl=0 
char id=48      x=213  y=297  width=21   height=24   xoffset=0    yoffset=8    xadvance=21   page=0    chnl=0 
char id=49      x=234  y=297  width=18   height=24   xoffset=2    yoffset=8    xadvance=21   page=0    chnl=0 
char id=50      x=252  y=297  width=20   height=24   xoffset=1    yoffset=8    xadvance=21   page=0    chnl=0 
char id=51      x=272  y=297  width=20   height=24   xoffset=1    yoffset=8    xadvance=21   page=0    chnl=0 
char id=52      x=292  y=297  width=22   height=24   xoffset=0    yoffset=8    xadvance=21   page=0    chnl=0 
char id=53      x=314  y=297  width=20   height=24   xoffset=1    yoffset=8    xadvance=21   page=0    chnl=0 
char id=54      x=334  y=297  width=21   height=24   xoffset=0    yoffset=8    xadvance=21   page=0    chnl=0 
char id=55      x=355  y=297  width=20   height=24   xoffset=1    yoffset=8    xadvance=21   page=0    chnl=0 
char id=56      x=375  y=297  width=21   height=24   xoffset=0    yoffset=8    xadvance=21   page=0    chnl=0 
char id=57      x=396  y=297  width=21   height=24   xoffset=0    yoffset=8    xadvance=21   page=0    chnl=0 
char id=58      x=500  y=418  width=8    height=18   xoffset=2    yoffset=14   xadvance=12   page=0    chnl=0 
char id=59      x=500  y=370  width=11   height=23   xoffset=0    yoffset=14   xadvance=12   page=0    chnl=0 
char id=63      x=417  y=297  width=17   height=24   xoffset=1    yoffset=8    xadvance=19   page=0    chnl=0 
char id=64      x=225  y=189  width=27   height=27   xoffset=1    yoffset=8    xadvance=29   page=0    chnl=0 
char id=65      x=434  y=297  width=25   height=24   xoffset=-1   yoffset=8    xadvance=23   page=0    chnl=0 
char id=66      x=459  y=297  width=22   height=24   xoffset=1    yoffset=8    xadvance=23   page=0    chnl=0 
char id=67      x=481  y=297  width=22   height=24   xoffset=0    yoffset=8    xadvance=22   page=0    chnl=0 
char id=68      x=0    y=322  width=24   height=24   xoffset=1    yoffset=8    xadvance=25   page=0    chnl=0 
char id=69      x=24   y=322  width=19   height=24   xoffset=1    yoffset=8    xadvance=21   page=0    chnl=0 
char id=70      x=43   y=322  width=19   height=24   xoffset=1    yoffset=8    xadvance=20   page=0    chnl=0 
char id=71      x=62   y=322  width=24   height=24   xoffset=0    yoffset=8    xadvance=24   page=0    chnl=0 
char id=72      x=86   y=322  width=23   height=24   xoffset=1    yoffset=8    xadvance=25   page=0    chnl=0 
char id=73      x=109  y=322  width=16   height=24   xoffset=0    yoffset=8    xadvance=16   page=0    chnl=0 
char id=74      x=125  y=322  width=17   height=24   xoffset=-1   yoffset=8    xadvance=17   page=0    chnl=0 
char id=75      x=142  y=322  width=24   height=24   xoffset=1    yoffset=8    xadvance=23   page=0    chnl=0 
char id=76      x=166  y=322  width=19   height=24   xoffset=1    yoffset=8    xadvance=19   page=0    chnl=0 
char id=77      x=185  y=322  width=26   height=24   xoffset=1    yoffset=8    xadvance=28   page=0    chnl=0 
char id=78      x=211  y=322  width=23   height=24   xoffset=1    yoffset=8    xadvance=25   page=0    chnl=0 
char id=79      x=234  y=322  width=25   height=24   xoffset=0    yoffset=8    xadvance=26   page=0    chnl=0 
char id=80      x=259  y=322  width=21   height=24   xoffset=1    yoffset=8    xadvance=22   page=0    chnl=0 
char id=81      x=427  y=98   width=25   height=30   xoffset=0    yoffset=8    xadvance=26   page=0    chnl=0 
char id=82      x=280  y=322  width=24   height=24   xoffset=1    yoffset=8    xadvance=23   page=0    chnl=0 
char id=83      x=304  y=322  width=22   height=24   xoffset=0    yoffset=8    xadvance=21   page=0    chnl=0 
char id=84      x=326  y=322  width=22   height=24   xoffset=-1   yoffset=8    xadvance=20   page=0    chnl=0 
char id=85      x=348  y=322  width=22   height=24   xoffset=1    yoffset=8    xadvance=24   page=0    chnl=0 
char id=86      x=370  y=322  width=25   height=24   xoffset=-1   yoffset=8    xadvance=23   page=0    chnl=0 
char id=87      x=395  y=322  width=35   height=24   xoffset=-1   yoffset=8    xadvance=34   page=0    chnl=0 
char id=88      x=430  y=322  width=25   height=24   xoffset=-1   yoffset=8    xadvance=23   page=0    chnl=0 
char id=89      x=455  y=322  width=24   height=24   xoffset=-1   yoffset=8    xadvance=22   page=0    chnl=0 
char id=90      x=479  y=322  width=21   height=24   xoffset=0    yoffset=8    xadvance=21   page=0    chnl=0 
char id=91      x=217  y=66   width=13   height=31   xoffset=2    yoffset=7    xadvance=16   page=0    chnl=0 
char id=92      x=452  y=98   width=19   height=30   xoffset=1    yoffset=7    xadvance=21   page=0    chnl=0 
char id=93      x=230  y=66   width=13   height=31   xoffset=1    yoffset=7    xadvance=16   page=0    chnl=0 
char id=97      x=61   y=490  width=19   height=18   xoffset=0    yoffset=14   xadvance=20   page=0    chnl=0 
char id=98      x=371  y=245  width=20   height=25   xoffset=1    yoffset=7    xadvance=21   page=0    chnl=0 
char id=99      x=80   y=490  width=18   height=18   xoffset=0    yoffset=14   xadvance=18   page=0    chnl=0 
char id=100     x=391  y=245  width=20   height=25   xoffset=0    yoffset=7    xadvance=21   page=0    chnl=0 
char id=101     x=98   y=490  width=20   height=18   xoffset=0    yoffset=14   xadvance=20   page=0    chnl=0 
char id=102     x=411  y=245  width=16   height=25   xoffset=-1   yoffset=7    xadvance=13   page=0    chnl=0 
char id=103     x=0    y=346  width=20   height=24   xoffset=0    yoffset=14   xadvance=21   page=0    chnl=0 
char id=104     x=427  y=245  width=20   height=25   xoffset=1    yoffset=7    xadvance=21   page=0    chnl=0 
char id=105     x=503  y=129  width=8    height=25   xoffset=1    yoffset=7    xadvance=10   page=0    chnl=0 
char id=106     x=243  y=66   width=13   height=31   xoffset=-2   yoffset=7    xadvance=12   page=0    chnl=0 
char id=107     x=447  y=245  width=20   height=25   xoffset=1    yoffset=7    xadvance=20   page=0    chnl=0 
char id=108     x=467  y=245  width=8    height=25   xoffset=1    yoffset=7    xadvance=10   page=0    chnl=0 
char id=109     x=118  y=490  width=30   height=18   xoffset=1    yoffset=14   xadvance=32   page=0    chnl=0 
char id=110     x=148  y=490  width=20   height=18   xoffset=1    yoffset=14   xadvance=21   page=0    chnl=0 
char id=111     x=168  y=490  width=21   height=18   xoffset=0    yoffset=14   xadvance=21   page=0    chnl=0 
char id=112     x=20   y=346  width=20   height=24   xoffset=1    yoffset=14   xadvance=21   page=0    chnl=0 
char id=113     x=40   y=346  width=20   height=24   xoffset=0    yoffset=14   xadvance=21   page=0    chnl=0 
char id=114     x=189  y=490  width=15   height=18   xoffset=1    yoffset=14   xadvance=15   page=0    chnl=0 
char id=115     x=204  y=490  width=18   height=18   xoffset=0    yoffset=14   xadvance=18   page=0    chnl=0 
char id=117     x=222  y=490  width=19   height=18   xoffset=1    yoffset=14   xadvance=21   page=0    chnl=0 
char id=118     x=241  y=490  width=22   height=18   xoffset=-1   yoffset=14   xadvance=20   page=0    chnl=0 
char id=119     x=263  y=490  width=31   height=18   xoffset=-1   yoffset=14   xadvance=29   page=0    chnl=0 
char id=120     x=294  y=490  width=22   height=18   xoffset=-1   yoffset=14   xadvance=20   page=0    chnl=0 
char id=121     x=60   y=346  width=22   height=24   xoffset=-1   yoffset=14   xadvance=20   page=0    chnl=0 
char id=122     x=316  y=490  width=18   height=18   xoffset=0    yoffset=14   xadvance=18   page=0    chnl=0 
char id=123     x=256  y=66   width=19   height=31   xoffset=1    yoffset=7    xadvance=21   page=0    chnl=0 
char id=124     x=275  y=66   width=7    height=31   xoffset=5    yoffset=7    xadvance=16   page=0    chnl=0 
char id=125     x=282  y=66   width=20   height=31   xoffset=1    yoffset=7    xadvance=21   page=0    chnl=0 
char id=160     x=0    y=0    width=0    height=0    xoffset=-1   yoffset=0    xadvance=10   page=0    chnl=0 
char id=161     x=500  y=322  width=10   height=24   xoffset=1    yoffset=8    xadvance=12   page=0    chnl=0 
char id=162     x=154  y=189  width=19   height=28   xoffset=1    yoffset=9    xadvance=21   page=0    chnl=0 
char id=163     x=82   y=346  width=20   height=24   xoffset=1    yoffset=8    xadvance=21   page=0    chnl=0 
char id=164     x=22   y=490  width=19   height=20   xoffset=1    yoffset=11   xadvance=21   page=0    chnl=0 
char id=165     x=102  y=346  width=23   height=24   xoffset=-1   yoffset=8    xadvance=21   page=0    chnl=0 
char id=166     x=302  y=66   width=7    height=31   xoffset=5    yoffset=7    xadvance=16   page=0    chnl=0 
char id=167     x=471  y=98   width=20   height=30   xoffset=1    yoffset=8    xadvance=21   page=0    chnl=0 
char id=169     x=252  y=189  width=29   height=27   xoffset=0    yoffset=8    xadvance=29   page=0    chnl=0 
char id=171     x=334  y=490  width=21   height=18   xoffset=2    yoffset=12   xadvance=25   page=0    chnl=0 
char id=174     x=281  y=189  width=29   height=27   xoffset=0    yoffset=8    xadvance=29   page=0    chnl=0 
char id=177     x=125  y=346  width=22   height=24   xoffset=2    yoffset=8    xadvance=26   page=0    chnl=0 
char id=181     x=147  y=346  width=20   height=24   xoffset=1    yoffset=14   xadvance=22   page=0    chnl=0 
char id=182     x=330  y=159  width=20   height=29   xoffset=0    yoffset=8    xadvance=21   page=0    chnl=0 
char id=187     x=355  y=490  width=21   height=18   xoffset=3    yoffset=12   xadvance=25   page=0    chnl=0 
char id=188     x=167  y=346  width=34   height=24   xoffset=1    yoffset=8    xadvance=35   page=0    chnl=0 
char id=189     x=201  y=346  width=34   height=24   xoffset=1    yoffset=8    xadvance=35   page=0    chnl=0 
char id=190     x=235  y=346  width=34   height=24   xoffset=1    yoffset=8    xadvance=35   page=0    chnl=0 
char id=191     x=269  y=346  width=18   height=24   xoffset=0    yoffset=8    xadvance=19   page=0    chnl=0 
char id=192     x=151  y=0    width=25   height=32   xoffset=-1   yoffset=0    xadvance=23   page=0    chnl=0 
char id=193     x=176  y=0    width=25   height=32   xoffset=-1   yoffset=0    xadvance=23   page=0    chnl=0 
char id=194     x=201  y=0    width=25   height=32   xoffset=-1   yoffset=0    xadvance=23   page=0    chnl=0 
char id=195     x=309  y=66   width=25   height=31   xoffset=-1   yoffset=1    xadvance=23   page=0    chnl=0 
char id=196     x=0    y=129  width=25   height=30   xoffset=-1   yoffset=2    xadvance=23   page=0    chnl=0 
char id=197     x=25   y=129  width=25   height=30   xoffset=-1   yoffset=2    xadvance=23   page=0    chnl=0 
char id=198     x=287  y=346  width=33   height=24   xoffset=-1   yoffset=8    xadvance=33   page=0    chnl=0 
char id=199     x=50   y=129  width=22   height=30   xoffset=0    yoffset=8    xadvance=22   page=0    chnl=0 
char id=200     x=226  y=0    width=19   height=32   xoffset=1    yoffset=0    xadvance=21   page=0    chnl=0 
char id=201     x=245  y=0    width=19   height=32   xoffset=1    yoffset=0    xadvance=21   page=0    chnl=0 
char id=202     x=264  y=0    width=19   height=32   xoffset=1    yoffset=0    xadvance=21   page=0    chnl=0 
char id=203     x=491  y=98   width=19   height=30   xoffset=1    yoffset=2    xadvance=21   page=0    chnl=0 
char id=204     x=283  y=0    width=16   height=32   xoffset=0    yoffset=0    xadvance=16   page=0    chnl=0 
char id=205     x=299  y=0    width=16   height=32   xoffset=0    yoffset=0    xadvance=16   page=0    chnl=0 
char id=206     x=315  y=0    width=16   height=32   xoffset=0    yoffset=0    xadvance=16   page=0    chnl=0 
char id=207     x=72   y=129  width=16   height=30   xoffset=0    yoffset=2    xadvance=16   page=0    chnl=0 
char id=208     x=320  y=346  width=26   height=24   xoffset=-1   yoffset=8    xadvance=25   page=0    chnl=0 
char id=209     x=334  y=66   width=23   height=31   xoffset=1    yoffset=1    xadvance=25   page=0    chnl=0 
char id=210     x=331  y=0    width=25   height=32   xoffset=0    yoffset=0    xadvance=26   page=0    chnl=0 
char id=211     x=356  y=0    width=25   height=32   xoffset=0    yoffset=0    xadvance=26   page=0    chnl=0 
char id=212     x=381  y=0    width=25   height=32   xoffset=0    yoffset=0    xadvance=26   page=0    chnl=0 
char id=213     x=357  y=66   width=25   height=31   xoffset=0    yoffset=1    xadvance=26   page=0    chnl=0 
char id=214     x=88   y=129  width=25   height=30   xoffset=0    yoffset=2    xadvance=26   page=0    chnl=0 
char id=215     x=0    y=490  width=22   height=21   xoffset=2    yoffset=11   xadvance=26   page=0    chnl=0 
char id=216     x=173  y=189  width=25   height=28   xoffset=0    yoffset=6    xadvance=26   page=0    chnl=0 
char id=217     x=406  y=0    width=22   height=32   xoffset=1    yoffset=0    xadvance=24   page=0    chnl=0 
char id=218     x=428  y=0    width=22   height=32   xoffset=1    yoffset=0    xadvance=24   page=0    chnl=0 
char id=219     x=450  y=0    width=22   height=32   xoffset=1    yoffset=0    xadvance=24   page=0    chnl=0 
char id=220     x=113  y=129  width=22   height=30   xoffset=1    yoffset=2    xadvance=24   page=0    chnl=0 
char id=221     x=472  y=0    width=24   height=32   xoffset=-1   yoffset=0    xadvance=22   page=0    chnl=0 
char id=222     x=346  y=346  width=21   height=24   xoffset=1    yoffset=8    xadvance=22   page=0    chnl=0 
char id=223     x=475  y=245  width=21   height=25   xoffset=1    yoffset=7    xadvance=21   page=0    chnl=0 
char id=224     x=310  y=189  width=19   height=27   xoffset=0    yoffset=5    xadvance=20   page=0    chnl=0 
char id=225     x=329  y=189  width=19   height=27   xoffset=0    yoffset=5    xadvance=20   page=0    chnl=0 
char id=226     x=348  y=189  width=19   height=27   xoffset=0    yoffset=5    xadvance=20   page=0    chnl=0 
char id=227     x=56   y=245  width=19   height=26   xoffset=0    yoffset=6    xadvance=20   page=0    chnl=0 
char id=228     x=0    y=272  width=19   height=25   xoffset=0    yoffset=7    xadvance=20   page=0    chnl=0 
char id=229     x=75   y=245  width=19   height=26   xoffset=0    yoffset=6    xadvance=20   page=0    chnl=0 
char id=230     x=376  y=490  width=31   height=18   xoffset=0    yoffset=14   xadvance=31   page=0    chnl=0 
char id=231     x=367  y=346  width=18   height=24   xoffset=0    yoffset=14   xadvance=18   page=0    chnl=0 
char id=232     x=367  y=189  width=20   height=27   xoffset=0    yoffset=5    xadvance=20   page=0    chnl=0 
char id=233     x=387  y=189  width=20   height=27   xoffset=0    yoffset=5    xadvance=20   page=0    chnl=0 
char id=234     x=407  y=189  width=20   height=27   xoffset=0    yoffset=5    xadvance=20   page=0    chnl=0 
char id=235     x=19   y=272  width=20   height=25   xoffset=0    yoffset=7    xadvance=20   page=0    chnl=0 
char id=236     x=499  y=159  width=12   height=27   xoffset=-2   yoffset=5    xadvance=10   page=0    chnl=0 
char id=237     x=427  y=189  width=12   height=27   xoffset=0    yoffset=5    xadvance=10   page=0    chnl=0 
char id=238     x=94   y=245  width=14   height=26   xoffset=-2   yoffset=6    xadvance=10   page=0    chnl=0 
char id=239     x=385  y=346  width=14   height=24   xoffset=-2   yoffset=8    xadvance=10   page=0    chnl=0 
char id=240     x=39   y=272  width=20   height=25   xoffset=0    yoffset=7    xadvance=20   page=0    chnl=0 
char id=241     x=108  y=245  width=20   height=26   xoffset=1    yoffset=6    xadvance=21   page=0    chnl=0 
char id=242     x=439  y=189  width=21   height=27   xoffset=0    yoffset=5    xadvance=21   page=0    chnl=0 
char id=243     x=460  y=189  width=21   height=27   xoffset=0    yoffset=5    xadvance=21   page=0    chnl=0 
char id=244     x=481  y=189  width=21   height=27   xoffset=0    yoffset=5    xadvance=21   page=0    chnl=0 
char id=245     x=128  y=245  width=21   height=26   xoffset=0    yoffset=6    xadvance=21   page=0    chnl=0 
char id=246     x=59   y=272  width=21   height=25   xoffset=0    yoffset=7    xadvance=21   page=0    chnl=0 
char id=249     x=0    y=218  width=19   height=27   xoffset=1    yoffset=5    xadvance=21   page=0    chnl=0 
char id=250     x=19   y=218  width=19   height=27   xoffset=1    yoffset=5    xadvance=21   page=0    chnl=0 
char id=251     x=38   y=218  width=19   height=27   xoffset=1    yoffset=5    xadvance=21   page=0    chnl=0 
char id=252     x=80   y=272  width=19   height=25   xoffset=1    yoffset=7    xadvance=21   page=0    chnl=0 
char id=253     x=31   y=0    width=22   height=33   xoffset=-1   yoffset=5    xadvance=20   page=0    chnl=0 
char id=254     x=382  y=66   width=20   height=31   xoffset=1    yoffset=7    xadvance=21   page=0    chnl=0 
char id=255     x=402  y=66   width=22   height=31   xoffset=-1   yoffset=7    xadvance=20   page=0    chnl=0 
char id=256     x=135  y=129  width=25   height=30   xoffset=-1   yoffset=2    xadvance=23   page=0    chnl=0 
char id=257     x=99   y=272  width=19   height=25   xoffset=0    yoffset=7    xadvance=20   page=0    chnl=0 
char id=258     x=424  y=66   width=25   height=31   xoffset=-1   yoffset=1    xadvance=23   page=0    chnl=0 
char id=259     x=149  y=245  width=19   height=26   xoffset=0    yoffset=6    xadvance=20   page=0    chnl=0 
char id=260     x=160  y=129  width=28   height=30   xoffset=-1   yoffset=8    xadvance=23   page=0    chnl=0 
char id=261     x=399  y=346  width=22   height=24   xoffset=0    yoffset=14   xadvance=20   page=0    chnl=0 
char id=262     x=0    y=34   width=22   height=32   xoffset=0    yoffset=0    xadvance=22   page=0    chnl=0 
char id=263     x=57   y=218  width=18   height=27   xoffset=0    yoffset=5    xadvance=18   page=0    chnl=0 
char id=264     x=22   y=34   width=22   height=32   xoffset=0    yoffset=0    xadvance=22   page=0    chnl=0 
char id=265     x=75   y=218  width=18   height=27   xoffset=0    yoffset=5    xadvance=18   page=0    chnl=0 
char id=266     x=188  y=129  width=22   height=30   xoffset=0    yoffset=2    xadvance=22   page=0    chnl=0 
char id=267     x=118  y=272  width=18   height=25   xoffset=0    yoffset=7    xadvance=18   page=0    chnl=0 
char id=268     x=44   y=34   width=22   height=32   xoffset=0    yoffset=0    xadvance=22   page=0    chnl=0 
char id=269     x=93   y=218  width=18   height=27   xoffset=0    yoffset=5    xadvance=18   page=0    chnl=0 
char id=270     x=66   y=34   width=24   height=32   xoffset=1    yoffset=0    xadvance=25   page=0    chnl=0 
char id=271     x=136  y=272  width=30   height=25   xoffset=0    yoffset=7    xadvance=26   page=0    chnl=0 
char id=272     x=320  y=346  width=26   height=24   xoffset=-1   yoffset=8    xadvance=25   page=0    chnl=0 
char id=273     x=166  y=272  width=22   height=25   xoffset=0    yoffset=7    xadvance=21   page=0    chnl=0 
char id=274     x=210  y=129  width=19   height=30   xoffset=1    yoffset=2    xadvance=21   page=0    chnl=0 
char id=275     x=188  y=272  width=20   height=25   xoffset=0    yoffset=7    xadvance=20   page=0    chnl=0 
char id=276     x=449  y=66   width=19   height=31   xoffset=1    yoffset=1    xadvance=21   page=0    chnl=0 
char id=277     x=168  y=245  width=20   height=26   xoffset=0    yoffset=6    xadvance=20   page=0    chnl=0 
char id=278     x=229  y=129  width=19   height=30   xoffset=1    yoffset=2    xadvance=21   page=0    chnl=0 
char id=279     x=208  y=272  width=20   height=25   xoffset=0    yoffset=7    xadvance=20   page=0    chnl=0 
char id=280     x=248  y=129  width=20   height=30   xoffset=1    yoffset=8    xadvance=21   page=0    chnl=0 
char id=281     x=421  y=346  width=20   height=24   xoffset=0    yoffset=14   xadvance=20   page=0    chnl=0 
char id=282     x=90   y=34   width=19   height=32   xoffset=1    yoffset=0    xadvance=21   page=0    chnl=0 
char id=283     x=111  y=218  width=20   height=27   xoffset=0    yoffset=5    xadvance=20   page=0    chnl=0 
char id=284     x=109  y=34   width=24   height=32   xoffset=0    yoffset=0    xadvance=24   page=0    chnl=0 
char id=285     x=53   y=0    width=20   height=33   xoffset=0    yoffset=5    xadvance=21   page=0    chnl=0 
char id=286     x=468  y=66   width=24   height=31   xoffset=0    yoffset=1    xadvance=24   page=0    chnl=0 
char id=287     x=133  y=34   width=20   height=32   xoffset=0    yoffset=6    xadvance=21   page=0    chnl=0 
char id=288     x=268  y=129  width=24   height=30   xoffset=0    yoffset=2    xadvance=24   page=0    chnl=0 
char id=289     x=0    y=98   width=20   height=31   xoffset=0    yoffset=7    xadvance=21   page=0    chnl=0 
char id=290     x=292  y=129  width=24   height=30   xoffset=0    yoffset=8    xadvance=24   page=0    chnl=0 
char id=291     x=153  y=34   width=20   height=32   xoffset=0    yoffset=6    xadvance=21   page=0    chnl=0 
char id=292     x=173  y=34   width=23   height=32   xoffset=1    yoffset=0    xadvance=25   page=0    chnl=0 
char id=293     x=196  y=34   width=20   height=32   xoffset=1    yoffset=0    xadvance=21   page=0    chnl=0 
char id=294     x=441  y=346  width=27   height=24   xoffset=-1   yoffset=8    xadvance=25   page=0    chnl=0 
char id=295     x=228  y=272  width=22   height=25   xoffset=-1   yoffset=7    xadvance=21   page=0    chnl=0 
char id=296     x=492  y=66   width=16   height=31   xoffset=0    yoffset=1    xadvance=16   page=0    chnl=0 
char id=297     x=468  y=346  width=14   height=24   xoffset=-2   yoffset=8    xadvance=10   page=0    chnl=0 
char id=298     x=316  y=129  width=16   height=30   xoffset=0    yoffset=2    xadvance=16   page=0    chnl=0 
char id=299     x=482  y=346  width=12   height=24   xoffset=-1   yoffset=8    xadvance=10   page=0    chnl=0 
char id=300     x=216  y=34   width=16   height=32   xoffset=0    yoffset=0    xadvance=16   page=0    chnl=0 
char id=301     x=188  y=245  width=12   height=26   xoffset=-1   yoffset=6    xadvance=10   page=0    chnl=0 
char id=302     x=332  y=129  width=17   height=30   xoffset=0    yoffset=8    xadvance=16   page=0    chnl=0 
char id=303     x=20   y=98   width=11   height=31   xoffset=1    yoffset=7    xadvance=10   page=0    chnl=0 
char id=304     x=349  y=129  width=16   height=30   xoffset=0    yoffset=2    xadvance=16   page=0    chnl=0 
char id=305     x=503  y=297  width=8    height=18   xoffset=1    yoffset=14   xadvance=10   page=0    chnl=0 
char id=306     x=0    y=370  width=29   height=24   xoffset=0    yoffset=8    xadvance=30   page=0    chnl=0 
char id=307     x=31   y=98   width=20   height=31   xoffset=1    yoffset=7    xadvance=22   page=0    chnl=0 
char id=308     x=232  y=34   width=18   height=32   xoffset=-1   yoffset=0    xadvance=17   page=0    chnl=0 
char id=309     x=496  y=0    width=15   height=32   xoffset=-2   yoffset=6    xadvance=12   page=0    chnl=0 
char id=310     x=365  y=129  width=24   height=30   xoffset=1    yoffset=8    xadvance=23   page=0    chnl=0 
char id=311     x=51   y=98   width=20   height=31   xoffset=1    yoffset=7    xadvance=20   page=0    chnl=0 
char id=312     x=407  y=490  width=20   height=18   xoffset=1    yoffset=14   xadvance=20   page=0    chnl=0 
char id=313     x=250  y=34   width=19   height=32   xoffset=1    yoffset=0    xadvance=19   page=0    chnl=0 
char id=314     x=269  y=34   width=12   height=32   xoffset=0    yoffset=0    xadvance=10   page=0    chnl=0 
char id=315     x=389  y=129  width=19   height=30   xoffset=1    yoffset=8    xadvance=19   page=0    chnl=0 
char id=316     x=71   y=98   width=12   height=31   xoffset=-1   yoffset=7    xadvance=10   page=0    chnl=0 
char id=317     x=250  y=272  width=19   height=25   xoffset=1    yoffset=7    xadvance=19   page=0    chnl=0 
char id=318     x=269  y=272  width=19   height=25   xoffset=1    yoffset=7    xadvance=16   page=0    chnl=0 
char id=319     x=29   y=370  width=19   height=24   xoffset=1    yoffset=8    xadvance=19   page=0    chnl=0 
char id=320     x=288  y=272  width=17   height=25   xoffset=1    yoffset=7    xadvance=17   page=0    chnl=0 
char id=321     x=48   y=370  width=21   height=24   xoffset=-1   yoffset=8    xadvance=19   page=0    chnl=0 
char id=322     x=496  y=245  width=13   height=25   xoffset=-1   yoffset=7    xadvance=11   page=0    chnl=0 
char id=323     x=281  y=34   width=23   height=32   xoffset=1    yoffset=0    xadvance=25   page=0    chnl=0 
char id=324     x=131  y=218  width=20   height=27   xoffset=1    yoffset=5    xadvance=21   page=0    chnl=0 
char id=325     x=408  y=129  width=23   height=30   xoffset=1    yoffset=8    xadvance=25   page=0    chnl=0 
char id=326     x=69   y=370  width=20   height=24   xoffset=1    yoffset=14   xadvance=21   page=0    chnl=0 
char id=327     x=304  y=34   width=23   height=32   xoffset=1    yoffset=0    xadvance=25   page=0    chnl=0 
char id=328     x=151  y=218  width=20   height=27   xoffset=1    yoffset=5    xadvance=21   page=0    chnl=0 
char id=329     x=305  y=272  width=26   height=25   xoffset=-2   yoffset=7    xadvance=25   page=0    chnl=0 
char id=330     x=431  y=129  width=23   height=30   xoffset=1    yoffset=8    xadvance=25   page=0    chnl=0 
char id=331     x=89   y=370  width=20   height=24   xoffset=1    yoffset=14   xadvance=21   page=0    chnl=0 
char id=332     x=454  y=129  width=25   height=30   xoffset=0    yoffset=2    xadvance=26   page=0    chnl=0 
char id=333     x=331  y=272  width=21   height=25   xoffset=0    yoffset=7    xadvance=21   page=0    chnl=0 
char id=334     x=83   y=98   width=25   height=31   xoffset=0    yoffset=1    xadvance=26   page=0    chnl=0 
char id=335     x=200  y=245  width=21   height=26   xoffset=0    yoffset=6    xadvance=21   page=0    chnl=0 
char id=336     x=327  y=34   width=25   height=32   xoffset=0    yoffset=0    xadvance=26   page=0    chnl=0 
char id=337     x=171  y=218  width=21   height=27   xoffset=0    yoffset=5    xadvance=21   page=0    chnl=0 
char id=338     x=109  y=370  width=34   height=24   xoffset=0    yoffset=8    xadvance=34   page=0    chnl=0 
char id=339     x=427  y=490  width=32   height=18   xoffset=0    yoffset=14   xadvance=32   page=0    chnl=0 
char id=340     x=352  y=34   width=24   height=32   xoffset=1    yoffset=0    xadvance=23   page=0    chnl=0 
char id=341     x=192  y=218  width=15   height=27   xoffset=1    yoffset=5    xadvance=15   page=0    chnl=0 
char id=342     x=479  y=129  width=24   height=30   xoffset=1    yoffset=8    xadvance=23   page=0    chnl=0 
char id=343     x=494  y=346  width=16   height=24   xoffset=0    yoffset=14   xadvance=15   page=0    chnl=0 
char id=344     x=376  y=34   width=24   height=32   xoffset=1    yoffset=0    xadvance=23   page=0    chnl=0 
char id=345     x=207  y=218  width=16   height=27   xoffset=0    yoffset=5    xadvance=15   page=0    chnl=0 
char id=346     x=400  y=34   width=22   height=32   xoffset=0    yoffset=0    xadvance=21   page=0    chnl=0 
char id=347     x=223  y=218  width=18   height=27   xoffset=0    yoffset=5    xadvance=18   page=0    chnl=0 
char id=348     x=422  y=34   width=22   height=32   xoffset=0    yoffset=0    xadvance=21   page=0    chnl=0 
char id=349     x=241  y=218  width=18   height=27   xoffset=0    yoffset=5    xadvance=18   page=0    chnl=0 
char id=350     x=0    y=159  width=22   height=30   xoffset=0    yoffset=8    xadvance=21   page=0    chnl=0 
char id=351     x=143  y=370  width=18   height=24   xoffset=0    yoffset=14   xadvance=18   page=0    chnl=0 
char id=352     x=444  y=34   width=22   height=32   xoffset=0    yoffset=0    xadvance=21   page=0    chnl=0 
char id=353     x=259  y=218  width=18   height=27   xoffset=0    yoffset=5    xadvance=18   page=0    chnl=0 
char id=354     x=22   y=159  width=22   height=30   xoffset=-1   yoffset=8    xadvance=20   page=0    chnl=0 
char id=355     x=350  y=159  width=16   height=29   xoffset=-1   yoffset=9    xadvance=14   page=0    chnl=0 
char id=356     x=466  y=34   width=22   height=32   xoffset=-1   yoffset=0    xadvance=20   page=0    chnl=0 
char id=357     x=366  y=159  width=23   height=29   xoffset=-1   yoffset=3    xadvance=14   page=0    chnl=0 
char id=358     x=161  y=370  width=22   height=24   xoffset=-1   yoffset=8    xadvance=20   page=0    chnl=0 
char id=360     x=108  y=98   width=22   height=31   xoffset=1    yoffset=1    xadvance=24   page=0    chnl=0 
char id=361     x=221  y=245  width=19   height=26   xoffset=1    yoffset=6    xadvance=21   page=0    chnl=0 
char id=362     x=44   y=159  width=22   height=30   xoffset=1    yoffset=2    xadvance=24   page=0    chnl=0 
char id=363     x=352  y=272  width=19   height=25   xoffset=1    yoffset=7    xadvance=21   page=0    chnl=0 
char id=364     x=130  y=98   width=22   height=31   xoffset=1    yoffset=1    xadvance=24   page=0    chnl=0 
char id=365     x=240  y=245  width=19   height=26   xoffset=1    yoffset=6    xadvance=21   page=0    chnl=0 
char id=366     x=488  y=34   width=22   height=32   xoffset=1    yoffset=0    xadvance=24   page=0    chnl=0 
char id=367     x=277  y=218  width=19   height=27   xoffset=1    yoffset=5    xadvance=21   page=0    chnl=0 
char id=368     x=0    y=66   width=22   height=32   xoffset=1    yoffset=0    xadvance=24   page=0    chnl=0 
char id=369     x=296  y=218  width=19   height=27   xoffset=1    yoffset=5    xadvance=21   page=0    chnl=0 
char id=370     x=66   y=159  width=22   height=30   xoffset=1    yoffset=8    xadvance=24   page=0    chnl=0 
char id=371     x=183  y=370  width=22   height=24   xoffset=1    yoffset=14   xadvance=21   page=0    chnl=0 
char id=372     x=22   y=66   width=35   height=32   xoffset=-1   yoffset=0    xadvance=34   page=0    chnl=0 
char id=373     x=315  y=218  width=31   height=27   xoffset=-1   yoffset=5    xadvance=29   page=0    chnl=0 
char id=374     x=57   y=66   width=24   height=32   xoffset=-1   yoffset=0    xadvance=22   page=0    chnl=0 
char id=375     x=73   y=0    width=22   height=33   xoffset=-1   yoffset=5    xadvance=20   page=0    chnl=0 
char id=376     x=88   y=159  width=24   height=30   xoffset=-1   yoffset=2    xadvance=22   page=0    chnl=0 
char id=377     x=81   y=66   width=21   height=32   xoffset=0    yoffset=0    xadvance=21   page=0    chnl=0 
char id=378     x=346  y=218  width=18   height=27   xoffset=0    yoffset=5    xadvance=18   page=0    chnl=0 
char id=379     x=112  y=159  width=21   height=30   xoffset=0    yoffset=2    xadvance=21   page=0    chnl=0 
char id=380     x=371  y=272  width=18   height=25   xoffset=0    yoffset=7    xadvance=18   page=0    chnl=0 
char id=381     x=102  y=66   width=21   height=32   xoffset=0    yoffset=0    xadvance=21   page=0    chnl=0 
char id=382     x=364  y=218  width=18   height=27   xoffset=0    yoffset=5    xadvance=18   page=0    chnl=0 
char id=383     x=389  y=272  width=15   height=25   xoffset=1    yoffset=7    xadvance=10   page=0    chnl=0 
char id=902     x=205  y=370  width=27   height=24   xoffset=-2   yoffset=8    xadvance=24   page=0    chnl=0 
char id=904     x=232  y=370  width=27   height=24   xoffset=-2   yoffset=8    xadvance=25   page=0    chnl=0 
char id=905     x=259  y=370  width=31   height=24   xoffset=-2   yoffset=8    xadvance=30   page=0    chnl=0 
char id=906     x=290  y=370  width=23   height=24   xoffset=-2   yoffset=8    xadvance=21   page=0    chnl=0 
char id=908     x=313  y=370  width=31   height=24   xoffset=-2   yoffset=8    xadvance=29   page=0    chnl=0 
char id=910     x=344  y=370  width=32   height=24   xoffset=-2   yoffset=8    xadvance=28   page=0    chnl=0 
char id=911     x=376  y=370  width=32   height=24   xoffset=-2   yoffset=8    xadvance=29   page=0    chnl=0 
char id=912     x=259  y=245  width=18   height=26   xoffset=-3   yoffset=6    xadvance=10   page=0    chnl=0 
char id=913     x=408  y=370  width=25   height=24   xoffset=-1   yoffset=8    xadvance=23   page=0    chnl=0 
char id=914     x=433  y=370  width=22   height=24   xoffset=1    yoffset=8    xadvance=23   page=0    chnl=0 
char id=915     x=455  y=370  width=19   height=24   xoffset=1    yoffset=8    xadvance=19   page=0    chnl=0 
char id=916     x=474  y=370  width=26   height=24   xoffset=-1   yoffset=8    xadvance=24   page=0    chnl=0 
char id=917     x=0    y=394  width=19   height=24   xoffset=1    yoffset=8    xadvance=21   page=0    chnl=0 
char id=918     x=19   y=394  width=21   height=24   xoffset=0    yoffset=8    xadvance=21   page=0    chnl=0 
char id=919     x=40   y=394  width=23   height=24   xoffset=1    yoffset=8    xadvance=25   page=0    chnl=0 
char id=920     x=63   y=394  width=25   height=24   xoffset=0    yoffset=8    xadvance=26   page=0    chnl=0 
char id=921     x=88   y=394  width=16   height=24   xoffset=0    yoffset=8    xadvance=16   page=0    chnl=0 
char id=922     x=104  y=394  width=24   height=24   xoffset=1    yoffset=8    xadvance=23   page=0    chnl=0 
char id=923     x=128  y=394  width=25   height=24   xoffset=-1   yoffset=8    xadvance=23   page=0    chnl=0 
char id=924     x=153  y=394  width=26   height=24   xoffset=1    yoffset=8    xadvance=28   page=0    chnl=0 
char id=925     x=179  y=394  width=23   height=24   xoffset=1    yoffset=8    xadvance=25   page=0    chnl=0 
char id=926     x=202  y=394  width=20   height=24   xoffset=1    yoffset=8    xadvance=21   page=0    chnl=0 
char id=927     x=222  y=394  width=25   height=24   xoffset=0    yoffset=8    xadvance=26   page=0    chnl=0 
char id=928     x=247  y=394  width=23   height=24   xoffset=1    yoffset=8    xadvance=25   page=0    chnl=0 
char id=929     x=270  y=394  width=21   height=24   xoffset=1    yoffset=8    xadvance=22   page=0    chnl=0 
char id=931     x=291  y=394  width=21   height=24   xoffset=0    yoffset=8    xadvance=21   page=0    chnl=0 
char id=932     x=312  y=394  width=22   height=24   xoffset=-1   yoffset=8    xadvance=20   page=0    chnl=0 
char id=933     x=334  y=394  width=24   height=24   xoffset=-1   yoffset=8    xadvance=22   page=0    chnl=0 
char id=934     x=358  y=394  width=29   height=24   xoffset=0    yoffset=8    xadvance=29   page=0    chnl=0 
char id=935     x=387  y=394  width=25   height=24   xoffset=-1   yoffset=8    xadvance=23   page=0    chnl=0 
char id=936     x=412  y=394  width=28   height=24   xoffset=1    yoffset=8    xadvance=29   page=0    chnl=0 
char id=937     x=440  y=394  width=27   height=24   xoffset=-1   yoffset=8    xadvance=25   page=0    chnl=0 
char id=938     x=133  y=159  width=16   height=30   xoffset=0    yoffset=2    xadvance=16   page=0    chnl=0 
char id=939     x=88   y=159  width=24   height=30   xoffset=-1   yoffset=2    xadvance=22   page=0    chnl=0 
char id=940     x=382  y=218  width=20   height=27   xoffset=0    yoffset=5    xadvance=21   page=0    chnl=0 
char id=941     x=402  y=218  width=18   height=27   xoffset=0    yoffset=5    xadvance=18   page=0    chnl=0 
char id=942     x=95   y=0    width=20   height=33   xoffset=1    yoffset=5    xadvance=21   page=0    chnl=0 
char id=943     x=502  y=189  width=8    height=27   xoffset=1    yoffset=5    xadvance=10   page=0    chnl=0 
char id=944     x=420  y=218  width=19   height=27   xoffset=1    yoffset=5    xadvance=21   page=0    chnl=0 
char id=945     x=459  y=490  width=20   height=18   xoffset=0    yoffset=14   xadvance=21   page=0    chnl=0 
char id=946     x=152  y=98   width=21   height=31   xoffset=1    yoffset=7    xadvance=21   page=0    chnl=0 
char id=947     x=467  y=394  width=22   height=24   xoffset=-1   yoffset=14   xadvance=20   page=0    chnl=0 
char id=948     x=404  y=272  width=21   height=25   xoffset=0    yoffset=7    xadvance=21   page=0    chnl=0 
char id=949     x=479  y=490  width=18   height=18   xoffset=0    yoffset=14   xadvance=18   page=0    chnl=0 
char id=950     x=173  y=98   width=18   height=31   xoffset=0    yoffset=7    xadvance=16   page=0    chnl=0 
char id=951     x=489  y=394  width=20   height=24   xoffset=1    yoffset=14   xadvance=21   page=0    chnl=0 
char id=952     x=425  y=272  width=21   height=25   xoffset=0    yoffset=7    xadvance=21   page=0    chnl=0 
char id=953     x=497  y=490  width=8    height=18   xoffset=1    yoffset=14   xadvance=10   page=0    chnl=0 
char id=955     x=446  y=272  width=22   height=25   xoffset=-1   yoffset=7    xadvance=20   page=0    chnl=0 
char id=956     x=0    y=418  width=20   height=24   xoffset=1    yoffset=14   xadvance=22   page=0    chnl=0 
char id=958     x=191  y=98   width=19   height=31   xoffset=0    yoffset=7    xadvance=17   page=0    chnl=0 
char id=961     x=20   y=418  width=20   height=24   xoffset=1    yoffset=14   xadvance=21   page=0    chnl=0 
char id=962     x=40   y=418  width=18   height=24   xoffset=0    yoffset=14   xadvance=17   page=0    chnl=0 
char id=966     x=58   y=418  width=28   height=24   xoffset=0    yoffset=14   xadvance=27   page=0    chnl=0 
char id=967     x=86   y=418  width=21   height=24   xoffset=-1   yoffset=14   xadvance=19   page=0    chnl=0 
char id=968     x=107  y=418  width=26   height=24   xoffset=1    yoffset=14   xadvance=28   page=0    chnl=0 
char id=970     x=133  y=418  width=14   height=24   xoffset=-2   yoffset=8    xadvance=10   page=0    chnl=0 
char id=971     x=468  y=272  width=19   height=25   xoffset=1    yoffset=7    xadvance=21   page=0    chnl=0 
char id=972     x=439  y=218  width=21   height=27   xoffset=0    yoffset=5    xadvance=21   page=0    chnl=0 
char id=973     x=460  y=218  width=19   height=27   xoffset=1    yoffset=5    xadvance=21   page=0    chnl=0 
char id=974     x=479  y=218  width=27   height=27   xoffset=0    yoffset=5    xadvance=27   page=0    chnl=0 
char id=1025    x=149  y=159  width=19   height=30   xoffset=1    yoffset=2    xadvance=21   page=0    chnl=0 
char id=1026    x=147  y=418  width=28   height=24   xoffset=-1   yoffset=8    xadvance=27   page=0    chnl=0 
char id=1027    x=123  y=66   width=19   height=32   xoffset=1    yoffset=0    xadvance=19   page=0    chnl=0 
char id=1028    x=175  y=418  width=22   height=24   xoffset=0    yoffset=8    xadvance=22   page=0    chnl=0 
char id=1029    x=197  y=418  width=22   height=24   xoffset=0    yoffset=8    xadvance=21   page=0    chnl=0 
char id=1030    x=219  y=418  width=16   height=24   xoffset=0    yoffset=8    xadvance=16   page=0    chnl=0 
char id=1031    x=168  y=159  width=16   height=30   xoffset=0    yoffset=2    xadvance=16   page=0    chnl=0 
char id=1032    x=235  y=418  width=17   height=24   xoffset=-1   yoffset=8    xadvance=17   page=0    chnl=0 
char id=1033    x=252  y=418  width=38   height=24   xoffset=-1   yoffset=8    xadvance=37   page=0    chnl=0 
char id=1034    x=290  y=418  width=36   height=24   xoffset=1    yoffset=8    xadvance=36   page=0    chnl=0 
char id=1035    x=326  y=418  width=29   height=24   xoffset=-1   yoffset=8    xadvance=28   page=0    chnl=0 
char id=1036    x=142  y=66   width=24   height=32   xoffset=1    yoffset=0    xadvance=23   page=0    chnl=0 
char id=1037    x=166  y=66   width=23   height=32   xoffset=1    yoffset=0    xadvance=25   page=0    chnl=0 
char id=1038    x=210  y=98   width=24   height=31   xoffset=-1   yoffset=1    xadvance=22   page=0    chnl=0 
char id=1039    x=389  y=159  width=23   height=29   xoffset=1    yoffset=8    xadvance=25   page=0    chnl=0 
char id=1040    x=355  y=418  width=25   height=24   xoffset=-1   yoffset=8    xadvance=23   page=0    chnl=0 
char id=1041    x=380  y=418  width=22   height=24   xoffset=1    yoffset=8    xadvance=23   page=0    chnl=0 
char id=1042    x=402  y=418  width=22   height=24   xoffset=1    yoffset=8    xadvance=23   page=0    chnl=0 
char id=1043    x=424  y=418  width=19   height=24   xoffset=1    yoffset=8    xadvance=19   page=0    chnl=0 
char id=1044    x=412  y=159  width=27   height=29   xoffset=-1   yoffset=8    xadvance=25   page=0    chnl=0 
char id=1046    x=443  y=418  width=36   height=24   xoffset=-1   yoffset=8    xadvance=33   page=0    chnl=0 
char id=1047    x=479  y=418  width=21   height=24   xoffset=0    yoffset=8    xadvance=21   page=0    chnl=0 
char id=1048    x=0    y=442  width=23   height=24   xoffset=1    yoffset=8    xadvance=25   page=0    chnl=0 
char id=1049    x=234  y=98   width=23   height=31   xoffset=1    yoffset=1    xadvance=25   page=0    chnl=0 
char id=1050    x=23   y=442  width=24   height=24   xoffset=1    yoffset=8    xadvance=23   page=0    chnl=0 
char id=1051    x=47   y=442  width=25   height=24   xoffset=-1   yoffset=8    xadvance=25   page=0    chnl=0 
char id=1052    x=72   y=442  width=26   height=24   xoffset=1    yoffset=8    xadvance=28   page=0    chnl=0 
char id=1053    x=98   y=442  width=23   height=24   xoffset=1    yoffset=8    xadvance=25   page=0    chnl=0 
char id=1054    x=121  y=442  width=25   height=24   xoffset=0    yoffset=8    xadvance=26   page=0    chnl=0 
char id=1055    x=146  y=442  width=23   height=24   xoffset=1    yoffset=8    xadvance=25   page=0    chnl=0 
char id=1056    x=169  y=442  width=21   height=24   xoffset=1    yoffset=8    xadvance=22   page=0    chnl=0 
char id=1057    x=190  y=442  width=22   height=24   xoffset=0    yoffset=8    xadvance=22   page=0    chnl=0 
char id=1058    x=212  y=442  width=22   height=24   xoffset=-1   yoffset=8    xadvance=20   page=0    chnl=0 
char id=1059    x=234  y=442  width=24   height=24   xoffset=-1   yoffset=8    xadvance=22   page=0    chnl=0 
char id=1060    x=258  y=442  width=29   height=24   xoffset=0    yoffset=8    xadvance=29   page=0    chnl=0 
char id=1061    x=287  y=442  width=25   height=24   xoffset=-1   yoffset=8    xadvance=23   page=0    chnl=0 
char id=1062    x=439  y=159  width=25   height=29   xoffset=1    yoffset=8    xadvance=25   page=0    chnl=0 
char id=1063    x=312  y=442  width=22   height=24   xoffset=0    yoffset=8    xadvance=24   page=0    chnl=0 
char id=1064    x=334  y=442  width=33   height=24   xoffset=1    yoffset=8    xadvance=35   page=0    chnl=0 
char id=1065    x=464  y=159  width=35   height=29   xoffset=1    yoffset=8    xadvance=35   page=0    chnl=0 
char id=1066    x=367  y=442  width=28   height=24   xoffset=-1   yoffset=8    xadvance=27   page=0    chnl=0 
char id=1067    x=395  y=442  width=30   height=24   xoffset=1    yoffset=8    xadvance=32   page=0    chnl=0 
char id=1068    x=425  y=442  width=22   height=24   xoffset=1    yoffset=8    xadvance=23   page=0    chnl=0 
char id=1069    x=447  y=442  width=22   height=24   xoffset=0    yoffset=8    xadvance=22   page=0    chnl=0 
char id=1070    x=469  y=442  width=35   height=24   xoffset=1    yoffset=8    xadvance=36   page=0    chnl=0 
char id=1071    x=0    y=466  width=24   height=24   xoffset=-1   yoffset=8    xadvance=24   page=0    chnl=0 
char id=1073    x=487  y=272  width=21   height=25   xoffset=0    yoffset=7    xadvance=21   page=0    chnl=0 
char id=1081    x=0    y=297  width=20   height=25   xoffset=1    yoffset=7    xadvance=22   page=0    chnl=0 
char id=1088    x=24   y=466  width=20   height=24   xoffset=1    yoffset=14   xadvance=21   page=0    chnl=0 
char id=1091    x=44   y=466  width=22   height=24   xoffset=-1   yoffset=14   xadvance=20   page=0    chnl=0 
char id=1092    x=257  y=98   width=29   height=31   xoffset=0    yoffset=7    xadvance=29   page=0    chnl=0 
char id=1105    x=20   y=297  width=20   height=25   xoffset=0    yoffset=7    xadvance=20   page=0    chnl=0 
char id=1106    x=286  y=98   width=22   height=31   xoffset=-1   yoffset=7    xadvance=21   page=0    chnl=0 
char id=1107    x=0    y=245  width=16   height=27   xoffset=1    yoffset=5    xadvance=16   page=0    chnl=0 
char id=1110    x=40   y=297  width=8    height=25   xoffset=1    yoffset=7    xadvance=10   page=0    chnl=0 
char id=1111    x=66   y=466  width=14   height=24   xoffset=-2   yoffset=8    xadvance=10   page=0    chnl=0 
char id=1112    x=308  y=98   width=13   height=31   xoffset=-2   yoffset=7    xadvance=12   page=0    chnl=0 
char id=1115    x=48   y=297  width=22   height=25   xoffset=-1   yoffset=7    xadvance=21   page=0    chnl=0 
char id=1116    x=16   y=245  width=20   height=27   xoffset=1    yoffset=5    xadvance=20   page=0    chnl=0 
char id=1117    x=36   y=245  width=20   height=27   xoffset=1    yoffset=5    xadvance=22   page=0    chnl=0 
char id=1118    x=321  y=98   width=22   height=31   xoffset=-1   yoffset=7    xadvance=20   page=0    chnl=0 
char id=1144    x=184  y=159  width=42   height=30   xoffset=0    yoffset=8    xadvance=41   page=0    chnl=0 
char id=1145    x=80   y=466  width=38   height=24   xoffset=0    yoffset=14   xadvance=37   page=0    chnl=0 
char id=1148    x=0    y=0    width=31   height=34   xoffset=0    yoffset=-2   xadvance=31   page=0    chnl=0 
char id=1149    x=198  y=189  width=27   height=28   xoffset=0    yoffset=4    xadvance=27   page=0    chnl=0 
char id=1168    x=226  y=159  width=19   height=30   xoffset=1    yoffset=2    xadvance=19   page=0    chnl=0 
char id=1169    x=118  y=466  width=16   height=24   xoffset=1    yoffset=8    xadvance=16   page=0    chnl=0 
char id=1170    x=134  y=466  width=21   height=24   xoffset=-1   yoffset=8    xadvance=19   page=0    chnl=0 
char id=1174    x=245  y=159  width=36   height=30   xoffset=-1   yoffset=7    xadvance=33   page=0    chnl=0 
char id=1178    x=281  y=159  width=24   height=30   xoffset=1    yoffset=7    xadvance=23   page=0    chnl=0 
char id=1180    x=70   y=297  width=24   height=25   xoffset=1    yoffset=7    xadvance=23   page=0    chnl=0 
char id=1181    x=41   y=490  width=20   height=19   xoffset=1    yoffset=13   xadvance=20   page=0    chnl=0 
char id=1186    x=0    y=189  width=25   height=29   xoffset=1    yoffset=8    xadvance=25   page=0    chnl=0 
char id=1192    x=155  y=466  width=26   height=24   xoffset=0    yoffset=8    xadvance=26   page=0    chnl=0 
char id=1196    x=25   y=189  width=22   height=29   xoffset=-1   yoffset=8    xadvance=20   page=0    chnl=0 
char id=1198    x=181  y=466  width=24   height=24   xoffset=-1   yoffset=8    xadvance=22   page=0    chnl=0 
char id=1199    x=205  y=466  width=22   height=24   xoffset=-1   yoffset=14   xadvance=20   page=0    chnl=0 
char id=1200    x=227  y=466  width=24   height=24   xoffset=-1   yoffset=8    xadvance=22   page=0    chnl=0 
char id=1201    x=251  y=466  width=22   height=24   xoffset=-1   yoffset=14   xadvance=20   page=0    chnl=0 
char id=1202    x=47   y=189  width=25   height=29   xoffset=-1   yoffset=8    xadvance=23   page=0    chnl=0 
char id=1204    x=72   y=189  width=32   height=29   xoffset=-1   yoffset=8    xadvance=30   page=0    chnl=0 
char id=1208    x=273  y=466  width=22   height=24   xoffset=0    yoffset=8    xadvance=24   page=0    chnl=0 
char id=1210    x=295  y=466  width=22   height=24   xoffset=1    yoffset=8    xadvance=24   page=0    chnl=0 
char id=1211    x=94   y=297  width=20   height=25   xoffset=1    yoffset=7    xadvance=21   page=0    chnl=0 
char id=1212    x=317  y=466  width=31   height=24   xoffset=-1   yoffset=8    xadvance=30   page=0    chnl=0 
char id=1214    x=104  y=189  width=31   height=29   xoffset=-1   yoffset=8    xadvance=30   page=0    chnl=0 
char id=1240    x=348  y=466  width=24   height=24   xoffset=0    yoffset=8    xadvance=24   page=0    chnl=0 
char id=1256    x=372  y=466  width=25   height=24   xoffset=0    yoffset=8    xadvance=26   page=0    chnl=0 
char id=1270    x=135  y=189  width=19   height=29   xoffset=1    yoffset=8    xadvance=19   page=0    chnl=0 
char id=1306    x=305  y=159  width=25   height=30   xoffset=0    yoffset=8    xadvance=26   page=0    chnl=0 
char id=1307    x=397  y=466  width=20   height=24   xoffset=0    yoffset=14   xadvance=21   page=0    chnl=0 
char id=1308    x=417  y=466  width=35   height=24   xoffset=-1   yoffset=8    xadvance=34   page=0    chnl=0 
char id=8239    x=0    y=0    width=0    height=0    xoffset=-1   yoffset=0    xadvance=5    page=0    chnl=0 
char id=8240    x=452  y=466  width=52   height=24   xoffset=1    yoffset=8    xadvance=53   page=0    chnl=0 
char id=8353    x=277  y=245  width=22   height=26   xoffset=0    yoffset=7    xadvance=22   page=0    chnl=0 
char id=8363    x=343  y=98   width=22   height=31   xoffset=0    yoffset=7    xadvance=21   page=0    chnl=0 
char id=8367    x=115  y=0    width=36   height=33   xoffset=-1   yoffset=5    xadvance=34   page=0    chnl=0 
char id=8368    x=365  y=98   width=22   height=31   xoffset=-1   yoffset=7    xadvance=20   page=0    chnl=0 
char id=8370    x=299  y=245  width=24   height=26   xoffset=0    yoffset=7    xadvance=24   page=0    chnl=0 
char id=8373    x=323  y=245  width=22   height=26   xoffset=0    yoffset=7    xadvance=22   page=0    chnl=0 
char id=34      x=248  y=84   width=16   height=11   xoffset=1    yoffset=7    xadvance=18   page=1    chnl=0 
char id=39      x=501  y=48   width=8    height=11   xoffset=1    yoffset=7    xadvance=10   page=1    chnl=0 
char id=42      x=486  y=66   width=19   height=17   xoffset=1    yoffset=7    xadvance=21   page=1    chnl=0 
char id=43      x=158  y=24   width=22   height=22   xoffset=2    yoffset=10   xadvance=26   page=1    chnl=0 
char id=44      x=212  y=84   width=12   height=13   xoffset=-1   yoffset=24   xadvance=11   page=1    chnl=0 
char id=45      x=89   y=102  width=14   height=6    xoffset=0    yoffset=18   xadvance=14   page=1    chnl=0 
char id=46      x=441  y=84   width=9    height=8    xoffset=1    yoffset=24   xadvance=11   page=1    chnl=0 
char id=60      x=180  y=24   width=23   height=22   xoffset=1    yoffset=10   xadvance=26   page=1    chnl=0 
char id=61      x=129  y=84   width=22   height=14   xoffset=2    yoffset=14   xadvance=26   page=1    chnl=0 
char id=62      x=203  y=24   width=23   height=22   xoffset=2    yoffset=10   xadvance=26   page=1    chnl=0 
char id=94      x=151  y=84   width=24   height=14   xoffset=1    yoffset=8    xadvance=26   page=1    chnl=0 
char id=95      x=194  y=102  width=25   height=5    xoffset=-2   yoffset=32   xadvance=21   page=1    chnl=0 
char id=96      x=450  y=84   width=12   height=8    xoffset=4    yoffset=5    xadvance=21   page=1    chnl=0 
char id=116     x=40   y=24   width=16   height=23   xoffset=-1   yoffset=9    xadvance=14   page=1    chnl=0 
char id=126     x=224  y=84   width=24   height=12   xoffset=1    yoffset=15   xadvance=26   page=1    chnl=0 
char id=168     x=103  y=102  width=15   height=6    xoffset=3    yoffset=7    xadvance=21   page=1    chnl=0 
char id=170     x=53   y=84   width=16   height=16   xoffset=1    yoffset=8    xadvance=18   page=1    chnl=0 
char id=172     x=175  y=84   width=22   height=14   xoffset=2    yoffset=18   xadvance=26   page=1    chnl=0 
char id=175     x=194  y=102  width=25   height=5    xoffset=-2   yoffset=3    xadvance=21   page=1    chnl=0 
char id=176     x=197  y=84   width=15   height=14   xoffset=1    yoffset=8    xadvance=18   page=1    chnl=0 
char id=178     x=69   y=84   width=15   height=16   xoffset=2    yoffset=8    xadvance=18   page=1    chnl=0 
char id=179     x=84   y=84   width=14   height=16   xoffset=2    yoffset=8    xadvance=18   page=1    chnl=0 
char id=180     x=462  y=84   width=11   height=8    xoffset=6    yoffset=5    xadvance=21   page=1    chnl=0 
char id=183     x=473  y=84   width=9    height=8    xoffset=1    yoffset=17   xadvance=11   page=1    chnl=0 
char id=184     x=482  y=84   width=11   height=8    xoffset=5    yoffset=30   xadvance=21   page=1    chnl=0 
char id=185     x=98   y=84   width=13   height=16   xoffset=3    yoffset=8    xadvance=18   page=1    chnl=0 
char id=186     x=111  y=84   width=18   height=16   xoffset=0    yoffset=8    xadvance=18   page=1    chnl=0 
char id=247     x=226  y=24   width=22   height=22   xoffset=2    yoffset=10   xadvance=26   page=1    chnl=0 
char id=248     x=248  y=24   width=21   height=22   xoffset=0    yoffset=12   xadvance=21   page=1    chnl=0 
char id=359     x=56   y=24   width=16   height=23   xoffset=-1   yoffset=9    xadvance=14   page=1    chnl=0 
char id=900     x=493  y=84   width=9    height=8    xoffset=6    yoffset=5    xadvance=21   page=1    chnl=0 
char id=901     x=0    y=102  width=19   height=8    xoffset=1    yoffset=5    xadvance=21   page=1    chnl=0 
char id=903     x=502  y=84   width=8    height=8    xoffset=2    yoffset=14   xadvance=12   page=1    chnl=0 
char id=954     x=490  y=24   width=20   height=18   xoffset=1    yoffset=14   xadvance=20   page=1    chnl=0 
char id=957     x=0    y=48   width=22   height=18   xoffset=-1   yoffset=14   xadvance=20   page=1    chnl=0 
char id=959     x=22   y=48   width=21   height=18   xoffset=0    yoffset=14   xadvance=21   page=1    chnl=0 
char id=960     x=43   y=48   width=20   height=18   xoffset=1    yoffset=14   xadvance=22   page=1    chnl=0 
char id=963     x=63   y=48   width=23   height=18   xoffset=0    yoffset=14   xadvance=22   page=1    chnl=0 
char id=964     x=86   y=48   width=18   height=18   xoffset=-1   yoffset=14   xadvance=16   page=1    chnl=0 
char id=965     x=104  y=48   width=19   height=18   xoffset=1    yoffset=14   xadvance=21   page=1    chnl=0 
char id=969     x=123  y=48   width=27   height=18   xoffset=0    yoffset=14   xadvance=27   page=1    chnl=0 
char id=982     x=150  y=48   width=23   height=18   xoffset=-1   yoffset=14   xadvance=21   page=1    chnl=0 
char id=1072    x=173  y=48   width=19   height=18   xoffset=0    yoffset=14   xadvance=20   page=1    chnl=0 
char id=1074    x=192  y=48   width=19   height=18   xoffset=1    yoffset=14   xadvance=20   page=1    chnl=0 
char id=1075    x=211  y=48   width=16   height=18   xoffset=1    yoffset=14   xadvance=16   page=1    chnl=0 
char id=1076    x=269  y=24   width=22   height=22   xoffset=-1   yoffset=14   xadvance=21   page=1    chnl=0 
char id=1077    x=227  y=48   width=20   height=18   xoffset=0    yoffset=14   xadvance=20   page=1    chnl=0 
char id=1078    x=247  y=48   width=32   height=18   xoffset=-1   yoffset=14   xadvance=30   page=1    chnl=0 
char id=1079    x=279  y=48   width=19   height=18   xoffset=-1   yoffset=14   xadvance=18   page=1    chnl=0 
char id=1080    x=298  y=48   width=20   height=18   xoffset=1    yoffset=14   xadvance=22   page=1    chnl=0 
char id=1082    x=318  y=48   width=20   height=18   xoffset=1    yoffset=14   xadvance=20   page=1    chnl=0 
char id=1083    x=338  y=48   width=21   height=18   xoffset=-1   yoffset=14   xadvance=21   page=1    chnl=0 
char id=1084    x=359  y=48   width=23   height=18   xoffset=1    yoffset=14   xadvance=25   page=1    chnl=0 
char id=1085    x=382  y=48   width=20   height=18   xoffset=1    yoffset=14   xadvance=22   page=1    chnl=0 
char id=1086    x=402  y=48   width=21   height=18   xoffset=0    yoffset=14   xadvance=21   page=1    chnl=0 
char id=1087    x=423  y=48   width=20   height=18   xoffset=1    yoffset=14   xadvance=22   page=1    chnl=0 
char id=1089    x=443  y=48   width=18   height=18   xoffset=0    yoffset=14   xadvance=18   page=1    chnl=0 
char id=1090    x=461  y=48   width=18   height=18   xoffset=-1   yoffset=14   xadvance=16   page=1    chnl=0 
char id=1093    x=479  y=48   width=22   height=18   xoffset=-1   yoffset=14   xadvance=20   page=1    chnl=0 
char id=1094    x=291  y=24   width=21   height=22   xoffset=1    yoffset=14   xadvance=22   page=1    chnl=0 
char id=1095    x=0    y=66   width=20   height=18   xoffset=0    yoffset=14   xadvance=21   page=1    chnl=0 
char id=1096    x=20   y=66   width=28   height=18   xoffset=1    yoffset=14   xadvance=30   page=1    chnl=0 
char id=1097    x=312  y=24   width=30   height=22   xoffset=1    yoffset=14   xadvance=30   page=1    chnl=0 
char id=1098    x=48   y=66   width=24   height=18   xoffset=-1   yoffset=14   xadvance=22   page=1    chnl=0 
char id=1099    x=72   y=66   width=26   height=18   xoffset=1    yoffset=14   xadvance=28   page=1    chnl=0 
char id=1100    x=98   y=66   width=19   height=18   xoffset=1    yoffset=14   xadvance=19   page=1    chnl=0 
char id=1101    x=117  y=66   width=18   height=18   xoffset=0    yoffset=14   xadvance=18   page=1    chnl=0 
char id=1102    x=135  y=66   width=29   height=18   xoffset=1    yoffset=14   xadvance=30   page=1    chnl=0 
char id=1103    x=164  y=66   width=20   height=18   xoffset=-1   yoffset=14   xadvance=20   page=1    chnl=0 
char id=1108    x=184  y=66   width=18   height=18   xoffset=0    yoffset=14   xadvance=18   page=1    chnl=0 
char id=1109    x=202  y=66   width=18   height=18   xoffset=0    yoffset=14   xadvance=18   page=1    chnl=0 
char id=1113    x=220  y=66   width=32   height=18   xoffset=-1   yoffset=14   xadvance=30   page=1    chnl=0 
char id=1114    x=252  y=66   width=30   height=18   xoffset=1    yoffset=14   xadvance=31   page=1    chnl=0 
char id=1119    x=342  y=24   width=20   height=22   xoffset=1    yoffset=14   xadvance=22   page=1    chnl=0 
char id=1159    x=19   y=102  width=16   height=8    xoffset=1    yoffset=6    xadvance=19   page=1    chnl=0 
char id=1171    x=282  y=66   width=18   height=18   xoffset=-1   yoffset=14   xadvance=16   page=1    chnl=0 
char id=1175    x=72   y=24   width=32   height=23   xoffset=-1   yoffset=13   xadvance=30   page=1    chnl=0 
char id=1179    x=104  y=24   width=20   height=23   xoffset=1    yoffset=13   xadvance=20   page=1    chnl=0 
char id=1187    x=362  y=24   width=21   height=22   xoffset=1    yoffset=14   xadvance=22   page=1    chnl=0 
char id=1193    x=300  y=66   width=21   height=18   xoffset=0    yoffset=14   xadvance=21   page=1    chnl=0 
char id=1197    x=383  y=24   width=18   height=22   xoffset=-1   yoffset=14   xadvance=16   page=1    chnl=0 
char id=1203    x=401  y=24   width=22   height=22   xoffset=-1   yoffset=14   xadvance=20   page=1    chnl=0 
char id=1205    x=423  y=24   width=26   height=22   xoffset=-1   yoffset=14   xadvance=24   page=1    chnl=0 
char id=1209    x=321  y=66   width=20   height=18   xoffset=0    yoffset=14   xadvance=21   page=1    chnl=0 
char id=1213    x=341  y=66   width=25   height=18   xoffset=-1   yoffset=14   xadvance=24   page=1    chnl=0 
char id=1215    x=449  y=24   width=25   height=22   xoffset=-1   yoffset=14   xadvance=24   page=1    chnl=0 
char id=1241    x=366  y=66   width=20   height=18   xoffset=0    yoffset=14   xadvance=20   page=1    chnl=0 
char id=1257    x=386  y=66   width=21   height=18   xoffset=0    yoffset=14   xadvance=21   page=1    chnl=0 
char id=1271    x=474  y=24   width=16   height=22   xoffset=1    yoffset=14   xadvance=16   page=1    chnl=0 
char id=1309    x=407  y=66   width=31   height=18   xoffset=-1   yoffset=14   xadvance=29   page=1    chnl=0 
char id=8210    x=118  y=102  width=20   height=6    xoffset=1    yoffset=18   xadvance=21   page=1    chnl=0 
char id=8211    x=118  y=102  width=20   height=6    xoffset=1    yoffset=18   xadvance=21   page=1    chnl=0 
char id=8212    x=138  y=102  width=28   height=6    xoffset=1    yoffset=18   xadvance=30   page=1    chnl=0 
char id=8213    x=166  y=102  width=28   height=6    xoffset=1    yoffset=18   xadvance=30   page=1    chnl=0 
char id=8215    x=64   y=102  width=25   height=7    xoffset=-2   yoffset=31   xadvance=21   page=1    chnl=0 
char id=8216    x=264  y=84   width=11   height=11   xoffset=-1   yoffset=7    xadvance=10   page=1    chnl=0 
char id=8217    x=275  y=84   width=11   height=11   xoffset=0    yoffset=7    xadvance=10   page=1    chnl=0 
char id=8218    x=286  y=84   width=11   height=11   xoffset=-1   yoffset=24   xadvance=10   page=1    chnl=0 
char id=8219    x=297  y=84   width=11   height=11   xoffset=-1   yoffset=7    xadvance=10   page=1    chnl=0 
char id=8220    x=308  y=84   width=18   height=11   xoffset=-1   yoffset=7    xadvance=18   page=1    chnl=0 
char id=8221    x=326  y=84   width=19   height=11   xoffset=0    yoffset=7    xadvance=18   page=1    chnl=0 
char id=8222    x=345  y=84   width=19   height=11   xoffset=-1   yoffset=24   xadvance=18   page=1    chnl=0 
char id=8223    x=364  y=84   width=19   height=11   xoffset=-1   yoffset=7    xadvance=18   page=1    chnl=0 
char id=8224    x=124  y=24   width=17   height=23   xoffset=2    yoffset=7    xadvance=21   page=1    chnl=0 
char id=8225    x=141  y=24   width=17   height=23   xoffset=2    yoffset=7    xadvance=21   page=1    chnl=0 
char id=8226    x=35   y=84   width=18   height=17   xoffset=2    yoffset=13   xadvance=21   page=1    chnl=0 
char id=8230    x=35   y=102  width=29   height=8    xoffset=1    yoffset=24   xadvance=31   page=1    chnl=0 
char id=8242    x=383  y=84   width=12   height=11   xoffset=0    yoffset=8    xadvance=11   page=1    chnl=0 
char id=8243    x=395  y=84   width=20   height=11   xoffset=0    yoffset=8    xadvance=18   page=1    chnl=0 
char id=8244    x=415  y=84   width=26   height=11   xoffset=-3   yoffset=8    xadvance=18   page=1    chnl=0 
char id=8249    x=438  y=66   width=11   height=18   xoffset=2    yoffset=12   xadvance=16   page=1    chnl=0 
char id=8250    x=449  y=66   width=12   height=18   xoffset=3    yoffset=12   xadvance=16   page=1    chnl=0 
char id=8252    x=0    y=0    width=19   height=24   xoffset=1    yoffset=8    xadvance=21   page=1    chnl=0 
char id=8254    x=219  y=102  width=25   height=5    xoffset=-2   yoffset=3    xadvance=21   page=1    chnl=0 
char id=8260    x=19   y=0    width=21   height=24   xoffset=-3   yoffset=8    xadvance=13   page=1    chnl=0 
char id=8352    x=40   y=0    width=21   height=24   xoffset=0    yoffset=8    xadvance=21   page=1    chnl=0 
char id=8354    x=61   y=0    width=22   height=24   xoffset=0    yoffset=8    xadvance=22   page=1    chnl=0 
char id=8355    x=83   y=0    width=21   height=24   xoffset=0    yoffset=8    xadvance=21   page=1    chnl=0 
char id=8356    x=104  y=0    width=20   height=24   xoffset=1    yoffset=8    xadvance=21   page=1    chnl=0 
char id=8357    x=124  y=0    width=30   height=24   xoffset=1    yoffset=11   xadvance=32   page=1    chnl=0 
char id=8358    x=154  y=0    width=27   height=24   xoffset=-1   yoffset=8    xadvance=25   page=1    chnl=0 
char id=8359    x=181  y=0    width=40   height=24   xoffset=1    yoffset=8    xadvance=40   page=1    chnl=0 
char id=8360    x=221  y=0    width=40   height=24   xoffset=1    yoffset=8    xadvance=40   page=1    chnl=0 
char id=8361    x=261  y=0    width=36   height=24   xoffset=-1   yoffset=8    xadvance=34   page=1    chnl=0 
char id=8364    x=297  y=0    width=23   height=24   xoffset=-1   yoffset=8    xadvance=21   page=1    chnl=0 
char id=8365    x=320  y=0    width=26   height=24   xoffset=-1   yoffset=8    xadvance=23   page=1    chnl=0 
char id=8366    x=346  y=0    width=22   height=24   xoffset=-1   yoffset=8    xadvance=20   page=1    chnl=0 
char id=8369    x=368  y=0    width=24   height=24   xoffset=-1   yoffset=8    xadvance=22   page=1    chnl=0 
char id=8371    x=392  y=0    width=25   height=24   xoffset=-1   yoffset=8    xadvance=23   page=1    chnl=0 
char id=8372    x=417  y=0    width=23   height=24   xoffset=-1   yoffset=8    xadvance=21   page=1    chnl=0 
char id=8377    x=440  y=0    width=20   height=24   xoffset=1    yoffset=8    xadvance=21   page=1    chnl=0 
char id=8378    x=460  y=0    width=22   height=24   xoffset=0    yoffset=8    xadvance=21   page=1    chnl=0 
char id=11373   x=482  y=0    width=24   height=24   xoffset=0    yoffset=8    xadvance=25   page=1    chnl=0 
char id=11377   x=461  y=66   width=25   height=18   xoffset=-1   yoffset=14   xadvance=22   page=1    chnl=0 
char id=11378   x=0    y=24   width=40   height=24   xoffset=-1   yoffset=8    xadvance=37   page=1    chnl=0 
char id=11379   x=0    y=84   width=35   height=18   xoffset=-1   yoffset=14   xadvance=32   page=1    chnl=0 
kernings count=0
